{
  "centros": [
    {
      "distanciaPromedio": 0.0,
      "_latitud": -34.524694,
      "_longitud":  -58.716499
    },
    {
      "distanciaPromedio": 0.0,
      "_latitud": -34.524862, 
      "_longitud": -58.700116
    },
    {
      "distanciaPromedio": 0.0,
      "_latitud": -34.537050,
      "_longitud": -58.709332
    },
    {
      "distanciaPromedio": 0.0,
      "_latitud": -34.504941,
      "_longitud": -58.720703
    },
    {
      "distanciaPromedio": 0.0,
      "_latitud": -34.519646,
      "_longitud": -58.729964
    }	
  ]
}